<?xml version="1.0" encoding="UTF-8" standalone="no"?>
<!DOCTYPE svg PUBLIC "-//W3C//DTD SVG 1.1//EN" "http://www.w3.org/Graphics/SVG/1.1/DTD/svg11.dtd">
<svg width="100%" height="100%" viewBox="0 0 256 256" version="1.1" xmlns="http://www.w3.org/2000/svg" xmlns:xlink="http://www.w3.org/1999/xlink" xml:space="preserve" xmlns:serif="http://www.serif.com/" style="fill-rule:evenodd;clip-rule:evenodd;stroke-linejoin:round;stroke-miterlimit:2;">
    <g transform="matrix(-1,1.22465e-16,-1.22465e-16,-1,336.007,256)">
        <path d="M105.636,64.464L189.592,15.992L189.592,53.739L138.326,83.338L138.326,221.129L105.636,202.255L105.636,64.464Z" style="fill:rgb(36,36,36);"/>
    </g>
    <g transform="matrix(1,0,0,1,-81.1903,0)">
        <path d="M106.819,64.464L218.473,0L251.164,18.874L139.509,83.338L139.509,221.129L106.819,202.255L106.819,64.464Z" style="fill:rgb(36,36,36);"/>
    </g>
    <g transform="matrix(1,0,0,1,-19.6091,34.8709)">
        <path d="M105.636,64.464L217.29,-0L249.981,18.874L138.326,83.338L138.326,221.129L105.636,202.255L105.636,64.464Z" style="fill:rgb(112,152,191);"/>
    </g>
</svg>
